…
## The following objects are masked from 'package:stats':
## 
##     filter, lag

## The following objects are masked from 'package:base':
## 
##     intersect, setdiff, setequal, union

token_list <- tokenize_words(weibo$text)
token_df <- term_list_to_df(token_list)
filter(token_df, id == 2)

## # A tibble: 53 x 2
##       id token
##    <int> <chr>
##  1     2    
##  2     2  
##  3     2  
##  4     2    
##  5     2    
##  6     2  
##  7     2    
##  8     2    
##  9     2  
## 10     2  
## # ... with 43 more rows
…
