Final Project
…
## Parsed with column specification:
## cols(
##   .default = col_integer(),
##   time = col_time(format = ""),
##   state = col_character(),
##   car_value = col_character()
## )

## See spec(...) for full column specifications.

allstate <- filter(allstate, allstate$customer_ID < 10006417)

allstate

## # A tibble: 27,364 x 25
##    customer_ID shopping_pt record_type   day     time state location
##          <int>       <int>       <int> <int>   <time> <chr>    <int>
##  1    10000000           1           0     0 08:35:00    IN    10001
##  2    10000000           2           0     0 08:38:00    IN    10001
##  3    10000000           3           0     0 08:38:00    IN    10001
##  4    10000000           4           0     0 08:39:00    IN    10001
##  5    10000000           5           0     0 11:55:00    IN    10001
##  6    10000000           6           0     0 11:57:00    IN    10001
##  7    10000000           7           0     0 11:58:00    IN    10001
##  8    10000000           8           0     0 12:03:00    IN    10001
##  9    10000000           9           1     0 12:07:00    IN    10001
## 10    10000005           1           0     3 08:56:00    NY    10006
## # ... with 27,354 more rows, and 18 more variables: group_size <int>,
## #   homeowner <int>, car_age <int>, car_value <chr>, risk_factor <int>,
## #   age_oldest <int>, age_youngest <int>, married_couple <int>,
## #   C_previous <int>, duration_previous <int>, A <int>, B <int>, C <int>,
## #   D <int>, E <int>, F <int>, G <int>, cost <int>
…
Group Summarize

I used the group summarize function to come up with the mean for each customer for every variable and then added the mean cost to my working data set.

group <- group_summarize(train_valid, customer_ID)
group <- select(group, customer_ID, cost_mean)
group

## # A tibble: 3,989 x 2
##    customer_ID cost_mean
##          <int>     <dbl>
##  1    10000000  633.4444
##  2    10000005  742.8333
##  3    10000007  608.3750
##  4    10000013  625.5000
##  5    10000014  602.0000
##  6    10000016  590.0000
##  7    10000019  685.5000
##  8    10000023  622.8571
##  9    10000025  605.2857
## 10    10000026  565.5000
## # ... with 3,979 more rows
…
