…
We then use the `term_list_to_df` function from **smodels** to
convert this into a feature data frame with one token per row:


{% highlight r %}
token_df <- term_list_to_df(token_list)
filter(token_df, id == 10)
{% endhighlight %}



{% highlight text %}
## # A tibble: 139 x 2
##       id     token
##    <int>     <chr>
##  1    10    pecans
##  2    10       are
##  3    10        my
##  4    10  favorite
##  5    10       nut
##  6    10      alas
##  7    10      they
##  8    10       are
##  9    10    fairly
## 10    10 expensive
## # ... with 129 more rows
…
