…
{% highlight r %}
flowers <- read_csv("https://statsmaths.github.io/ml_data/flowers_17.csv")
x64 <- read_rds("~/gd/ml_data_raw/output_image_data/flowers_17_x64.rds")
x64 <- x64[flowers$class %in% 0:9,,,]
flowers <- flowers[flowers$class %in% 0:9,]
fnames <- flowers$class_name[match(0:9, flowers$class)]
fnames <- factor(fnames, levels = fnames)
flowers
{% endhighlight %}



{% highlight text %}
## # A tibble: 600 x 4
##       obs_id train_id class class_name
##        <chr>    <chr> <int>      <chr>
##  1 id_000362    valid     4     crocus
##  2 id_000506    train     6  tigerlily
##  3 id_000778    valid     9  sunflower
##  4 id_000274    train     3   bluebell
##  5 id_000084    train     1   snowdrop
##  6 id_000279    train     3   bluebell
##  7 id_000518    train     6  tigerlily
##  8 id_000670    train     8 fritillary
##  9 id_000511    train     6  tigerlily
## 10 id_000285    valid     3   bluebell
## # ... with 590 more rows
…
