…
{% highlight r %}
flowers <- read_csv("~/gh/ml_data/flowers_17.csv")
x64 <- read_rds("~/gd/ml_data_raw/output_image_data/flowers_17_x64.rds")
x64 <- x64[flowers$class %in% 1:10,,,]
flowers <- flowers[flowers$class %in% 1:10,]
fnames <- flowers$class_name[match(1:10, flowers$class)]
flowers
{% endhighlight %}



{% highlight text %}
## # A tibble: 600 x 4
##       obs_id train_id class class_name
##        <chr>    <chr> <int>      <chr>
##  1 id_000362    valid     5  dandelion
##  2 id_000506    train     7       iris
##  3 id_000778    valid    10 windflower
##  4 id_000274    train     4      daisy
##  5 id_000084    train     2 colts foot
##  6 id_000279    train     4      daisy
##  7 id_000518    train     7       iris
##  8 id_000670    train     9  sunflower
##  9 id_000511    train     7       iris
## 10 id_000285    valid     4      daisy
## # ... with 590 more rows
…
