…
To get a better sense of style, let us grab the annotations
from the **cleanNLP** package. I have put these online so
that we do not need to set-up and run the package ourselves.


{% highlight r %}
anno <- read_csv("~/gh/ml_data/stylo_uk_anno.csv.gz")
anno
{% endhighlight %}



{% highlight text %}
## # A tibble: 1,581,311 x 8
##       id  word  lemma  upos   pos source relation word_source
##    <int> <chr>  <chr> <chr> <chr>  <int>    <chr>       <chr>
##  1     1     I -PRON-  PRON   PRP      2    nsubj         sat
##  2     1   sat    sit  VERB   VBD      0     ROOT        ROOT
##  3     1  down   down  PART    RP      2      prt         sat
##  4     1 again  again   ADV    RB      2   advmod         sat
##  5     1     ;      ; PUNCT     :      2    punct         sat
##  6     1   sat    sit  VERB   VBD      2     conj         sat
##  7     1   for    for   ADP    IN      6     prep         sat
##  8     1     a      a   DET    DT      9      det        time
##  9     1  time   time  NOUN    NN      7     pobj         for
## 10     1    in     in   ADP    IN      9     prep        time
## # ... with 1,581,301 more rows
…
