…
{% highlight r %}
x <- cars$displ[cars$train_id == "train"]
y <- cars$cty[cars$train_id == "train"]

df <- grad_descent(x, y, iter = 100, rho = 0.01)
df
{% endhighlight %}



{% highlight text %}
## # A tibble: 100 x 3
##     iter     alpha     beta
##    <int>     <dbl>    <dbl>
##  1     1 0.0000000 0.000000
##  2     2 0.3347143 1.096943
##  3     3 0.5849454 1.855850
##  4     4 0.7763544 2.379569
##  5     5 0.9267962 2.739656
##  6     6 1.0486938 2.985902
##  7     7 1.1506911 3.152948
##  8     8 1.2388025 3.264899
##  9     9 1.3172128 3.338525
## 10    10 1.3888337 3.385495
## # ... with 90 more rows
…
