…
{% highlight r %}
df
{% endhighlight %}



{% highlight text %}
## # A tibble: 1,371 x 31
##     make    model   software bits_per_sample image_width image_height
##    <chr>    <chr>      <chr>           <int>       <int>        <int>
##  1 Apple iPhone 6 Photos 1.5               0        2448         3264
##  2 Apple iPhone 6 Photos 1.5               0        2448         3264
##  3 Apple iPhone 6 Photos 1.5               0        2448         3264
##  4 Apple iPhone 6 Photos 1.5               0        2448         3264
##  5 Apple iPhone 6 Photos 1.5               0        3264         2448
##  6 Apple iPhone 6 Photos 1.5               0        2448         3264
##  7 Apple iPhone 6 Photos 1.5               0        2448         3264
##  8 Apple iPhone 6 Photos 1.5               0        2448         3264
##  9 Apple iPhone 6 Photos 1.5               0        2448         3264
## 10 Apple iPhone 6 Photos 1.5               0        2448         3264
## # ... with 1,361 more rows, and 25 more variables: description <chr>,
## #   orientation <int>, copyright <chr>, timestamp <chr>,
## #   origin_timestamp <chr>, digitised_timestamp <chr>,
## #   subsecond_timestamp <chr>, exposure_time <dbl>, f_stop <dbl>,
## #   iso_speed <int>, subject_distance <chr>, exposure_bias <dbl>,
## #   used_flash <lgl>, metering <int>, focal_length <dbl>,
## #   focal_length_35mm <int>, latitude <dbl>, longitude <dbl>,
## #   altitude <dbl>, lens_min_focal_length <dbl>,
## #   lens_max_focal_length <dbl>, lens_min_f_stop <dbl>,
…
Now that we know roughly how to turn image data into arrays, let's
load the entire corpus from class. The data is split into two
parts, much like the annotated data you made for today's class. The
first is a small data frame that gives just the metadata:


{% highlight r %}
f17 <- read_csv("https://statsmaths.github.io/ml_data/f17_photos_2.csv")
f17
{% endhighlight %}



{% highlight text %}
## # A tibble: 1,331 x 3
##       obs_id train_id class
##        <chr>    <chr> <int>
##  1 id_000001    train     0
##  2 id_000002    valid     0
##  3 id_000003    train     1
##  4 id_000004    valid     1
##  5 id_000005     test    NA
##  6 id_000006     test    NA
##  7 id_000007     test    NA
##  8 id_000008    valid     1
##  9 id_000009    train     1
## 10 id_000010    train     0
## # ... with 1,321 more rows
…
