…
{% highlight text %}
## Loading required package: Matrix
{% endhighlight %}



{% highlight r %}
filter(token_df, id == 500)
{% endhighlight %}



{% highlight text %}
## # A tibble: 28 x 2
##       id     token
##    <int>     <chr>
##  1   500    orange
##  2   500    brings
##  3   500       you
##  4   500 ringtones
##  5   500      from
##  6   500       all
##  7   500      time
##  8   500     chart
##  9   500    heroes
## 10   500      with
## # ... with 18 more rows
…
